Viernes 21 de Abril de 2017
---------------------------

Fecha: 21 de Abril de 2017
	Codigo del curso: 16/0274.004
	Entidad: System
	Curso: Desarrollo de aplicaciones con tecnologias web
	Modulo: MF0491_3: Programación web en el entorno cliente